…
**Conditions:** Some further complexity might appear if some codes are only supposed to be recognized based on certain conditions. Patients with THA for example might have an adverse event after surgery if a certain ICD-code is recorded as the main diagnose at a later hospital visit, although the same code could be ignored if recorded only as a secondary diagnosis.

**To summarize:** The coder package takes three objects: (1) a data frame/table/tibble with id and possible dates from a primary source; (2) coded data from a secondary source with the same id and possibly different dates and; (3) a `classcodes` object, either a default one from the package, or as specified by the user. The outcome is then: (i) codes associated with each element from (1) identified from (2), possibly limited to a relevant time window; (ii) a broader categorization of the relevant codes as prescribed by (3), and; (iii) a summarized index score based on the relevant categories from (3).

(i-iii) corresponds to the output from functions `codify()`, `classify()` and `index()`, which could be chained explicitly as `codify() %>% classify() %>% index()`, or implicitly by the `categorize()` function.

## Usage

Assume we have some patients with surgery at specified dates:


```r
library(coder)
ex_people
#> # A tibble: 100 × 2
#>    name              surgery   
#>    <chr>             <date>    
#>  1 Chen, Trevor      2022-08-12
#>  2 Graves, Acineth   2022-05-04
#>  3 Trujillo, Yanelly 2022-04-21
#>  4 Simpson, Kenneth  2022-07-24
#>  5 Chin, Nelson      2022-07-07
#>  6 Le, Christina     2022-02-08
#>  7 Kang, Xuan        2022-05-13
#>  8 Shuemaker, Lauren 2022-02-09
#>  9 Boucher, Teresa   2022-07-18
#> 10 Le, Soraiya       2022-06-22
#> # … with 90 more rows
```

Those patients (among others) were also recorded in a national patient register with date of hospital admissions and diagnoses codes coded by the International Classification of Diseases (ICD) version 10:


```r
ex_icd10
#> # A tibble: 2,376 × 4
#>    name                 admission  icd10 hdia 
#>    <chr>                <date>     <chr> <lgl>
#>  1 Tran, Kenneth        2022-02-23 S134A FALSE
#>  2 Tran, Kenneth        2022-08-09 W3319 FALSE
#>  3 Tran, Kenneth        2022-07-19 Y0262 TRUE 
#>  4 Tran, Kenneth        2022-06-11 X0488 FALSE
#>  5 Sommerville, Dominic 2022-07-31 V8104 FALSE
#>  6 Sommerville, Dominic 2022-03-11 B853  FALSE
#>  7 Sommerville, Dominic 2022-07-26 Q174  FALSE
#>  8 Sommerville, Dominic 2022-03-16 A227  FALSE
#>  9 Sommerville, Dominic 2022-07-21 H702  FALSE
#> 10 Sommerville, Dominic 2021-11-12 X6051 TRUE 
#> # … with 2,366 more rows
```
Using those two data sets, as well as a classification scheme (`classcodes` object; see below), we can easily identify all Charlson comorbidities for each patient:


```r
ch <- 
  categorize(
    ex_people,                  # patients of interest 
    codedata = ex_icd10,        # Medical codes from national patient register
    cc = "charlson",            # Calculate Charlson comorbidity
    id = "name", code = "icd10" # Specify column names
  )
#> Classification based on: icd10

ch
#> # A tibble: 100 × 25
#>    name              surgery    myocardial.infarction congestive.heart.failure peripheral.vascular.disease cerebrovascular.dise…¹ demen…² chron…³ rheum…⁴ pepti…⁵ mild.…⁶ diabe…⁷ hemip…⁸ renal…⁹ diabe…˟ malig…˟ moder…˟ metas…˟ AIDS.…˟ charl…˟ deyo_…˟ dhoore ghali quan_…˟ quan_…˟
#>    <chr>             <date>     <lgl>                 <lgl>                    <lgl>                       <lgl>                  <lgl>   <lgl>   <lgl>   <lgl>   <lgl>   <lgl>   <lgl>   <lgl>   <lgl>   <lgl>   <lgl>   <lgl>   <lgl>     <dbl>   <dbl>  <dbl> <dbl>   <dbl>   <dbl>
#>  1 Chen, Trevor      2022-08-12 FALSE                 FALSE                    FALSE                       FALSE                  FALSE   FALSE   FALSE   FALSE   FALSE   FALSE   FALSE   FALSE   FALSE   FALSE   FALSE   FALSE   FALSE         0       0      0     0       0       0
#>  2 Graves, Acineth   2022-05-04 FALSE                 FALSE                    FALSE                       FALSE                  FALSE   FALSE   FALSE   FALSE   FALSE   FALSE   FALSE   FALSE   FALSE   FALSE   FALSE   FALSE   FALSE         0       0      0     0       0       0
#>  3 Trujillo, Yanelly 2022-04-21 FALSE                 FALSE                    FALSE                       FALSE                  FALSE   FALSE   FALSE   FALSE   FALSE   FALSE   FALSE   FALSE   FALSE   FALSE   FALSE   FALSE   FALSE         0       0      0     0       0       0
#>  4 Simpson, Kenneth  2022-07-24 FALSE                 FALSE                    FALSE                       FALSE                  FALSE   FALSE   FALSE   FALSE   FALSE   FALSE   FALSE   FALSE   FALSE   FALSE   FALSE   FALSE   FALSE         0       0      0     0       0       0
#>  5 Chin, Nelson      2022-07-07 FALSE                 FALSE                    FALSE                       FALSE                  FALSE   FALSE   FALSE   FALSE   FALSE   FALSE   FALSE   FALSE   FALSE   FALSE   FALSE   FALSE   FALSE         0       0      0     0       0       0
#>  6 Le, Christina     2022-02-08 FALSE                 FALSE                    FALSE                       FALSE                  FALSE   FALSE   FALSE   FALSE   FALSE   FALSE   FALSE   FALSE   FALSE   TRUE    FALSE   FALSE   FALSE         2       1      1     0       2       2
#>  7 Kang, Xuan        2022-05-13 FALSE                 FALSE                    FALSE                       FALSE                  FALSE   FALSE   FALSE   FALSE   FALSE   FALSE   FALSE   FALSE   FALSE   FALSE   FALSE   FALSE   FALSE         0       0      0     0       0       0
#>  8 Shuemaker, Lauren 2022-02-09 FALSE                 FALSE                    FALSE                       FALSE                  FALSE   TRUE    FALSE   FALSE   FALSE   FALSE   FALSE   FALSE   FALSE   FALSE   FALSE   FALSE   FALSE         1       1      1     0       1       1
#>  9 Boucher, Teresa   2022-07-18 FALSE                 FALSE                    TRUE                        FALSE                  FALSE   FALSE   FALSE   FALSE   FALSE   FALSE   FALSE   FALSE   FALSE   FALSE   FALSE   FALSE   FALSE         1       1      1     2       1       0
#> 10 Le, Soraiya       2022-06-22 FALSE                 FALSE                    FALSE                       FALSE                  FALSE   FALSE   FALSE   FALSE   FALSE   FALSE   FALSE   FALSE   FALSE   FALSE   FALSE   FALSE   FALSE         0       0      0     0       0       0
#> # … with 90 more rows, and abbreviated variable names ¹​cerebrovascular.disease, ²​dementia, ³​chronic.pulmonary.disease, ⁴​rheumatic.disease, ⁵​peptic.ulcer.disease, ⁶​mild.liver.disease, ⁷​diabetes.without.complication, ⁸​hemiplegia.or.paraplegia, ⁹​renal.disease,
#> #   ˟​diabetes.complication, ˟​malignancy, ˟​moderate.or.severe.liver.disease, ˟​metastatic.solid.tumor, ˟​AIDS.HIV, ˟​charlson, ˟​deyo_ramano, ˟​quan_original, ˟​quan_updated
```
…
