Deterministic Categorization of Items Based on External Code Data • coder
…
Index: Now, instead of working with tens of thousands of individual ICD-codes, each patient might be recognized to have none or some familiar comorbidity such as hypertension, cancer or dementia. This granularity might be too fine-grained still, wherefore an even simpler index score might be searched for. Such scores/indices/weighted sums have been proposed as well and exist in many versions for each of the standard classifications. Some are simple counts, some are weighted sums, and some accounts for some inherited hierarchy (such that ICD-codes for diabetes with and without complications might be recognized in the same patient, although the un-complicated version might be masked by the complicated version in the index).

Conditions: Some further complexity might appear if some codes are only supposed to be recognized based on certain conditions. Patients with THA for example might have an adverse event after surgery if a certain ICD-code is recorded as the main diagnose at a later hospital visit, although the same code could be ignored if recorded only as a secondary diagnosis.

To summarize: The coder package takes three objects: (1) a data frame/table/tibble with id and possible dates from a primary source; (2) coded data from a secondary source with the same id and possibly different dates and; (3) a classcodes object, either a default one from the package, or as specified by the user. The outcome is then: (i) codes associated with each element from (1) identified from (2), possibly limited to a relevant time window; (ii) a broader categorization of the relevant codes as prescribed by (3), and; (iii) a summarized index score based on the relevant categories from (3).

(i-iii) corresponds to the output from functions codify(), classify() and index(), which could be chained explicitly as codify() %>% classify() %>% index(), or implicitly by the categorize() function.

Usage

Assume we have some patients with corresponding dates of interest (i.e. dates of total hip arthroplasty; THA):

library(coder)
ex_people
#> # A tibble: 100 x 2
#>    name                    surgery   
#>    <chr>                   <date>    
#>  1 Miller, Von Buddenbrock 2019-12-04
#>  2 Enriquez, Anthony       2020-05-17
#>  3 al-Dib, Farhaan         2020-07-13
#>  4 Martinez, Alison        2020-04-19
#>  5 el-Masri, Junaid        2020-02-06
#>  6 Sam, Niki               2020-07-25
#>  7 Connors, Jaylyn         2019-12-10
#>  8 al-Ramadan, Hanoona     2020-02-25
#>  9 Orozco, Daniel          2019-12-21
#> 10 Mills, Henry            2020-03-05
#> # ... with 90 more rows

We also have some external medical data: ICD-10-codes (code) recorded at previous hospital visits (code date), some of them are main diagnosis and some secondary (hdia):

ex_icd10
#> # A tibble: 1,000 x 4
#>    name               admission  icd10 hdia 
#>    <chr>              <date>     <chr> <lgl>
#>  1 Tapparo, Keishawn  2020-06-20 F602  FALSE
#>  2 Brunson, Brannon   2019-11-15 B968  FALSE
#>  3 Perez, Vidal       2019-07-20 W2718 FALSE
#>  4 al-Ismail, Waleeda 2020-05-12 V4451 FALSE
#>  5 Morris, Marvin     2020-06-21 V6064 FALSE
#>  6 Murray, Eric       2019-09-29 R221  FALSE
#>  7 Apodaca, Lakota    2020-06-08 Y0829 FALSE
#>  8 Wuertz, Jenny      2020-06-14 Y762  TRUE 
#>  9 Alexander, Bethany 2019-10-02 B670  FALSE
#> 10 Quick, Miriah      2019-12-06 N052  FALSE
#> # ... with 990 more rows
…
    # We only consider ICD-10-codes recorded within one year prior to THA
    codify_args = list(date = "surgery", 
                       code_date = "admission", 
                       days = c(-365, -1))
  )
#> Classification based on: regex_icd10
#> Warning in `[.data.table`(unique(codified, by = id), , ...data_cols): Both '.data_cols' and
#> '...data_cols' exist in calling scope. Please remove the '...data_cols' variable in calling scope
#> for clarity.

The result is a dataset with columns for each recognized comorbidity and (optional) each weighted index as displayed here for the interest of space (quan_original as proposed by Charlson et al. in 1987 and the quan_updated from Quan et al. in 2011). Most of the patients are healthy with an index score of 0. Some patients had no recorded hospital visits during the year preceding THA. They receive NA scores, which could later be substituted with 0.

ch
#> # A tibble: 100 x 21
#>    name  surgery    `myocardial inf~ `congestive hea~ `peripheral vas~ `cerebrovascula~ dementia
#>    <chr> <date>     <lgl>            <lgl>            <lgl>            <lgl>            <lgl>   
#>  1 Alex~ 2019-10-08 FALSE            FALSE            FALSE            FALSE            FALSE   
#>  2 Argu~ 2020-07-05 FALSE            FALSE            FALSE            FALSE            FALSE   
#>  3 Aust~ 2020-06-28 FALSE            FALSE            FALSE            FALSE            FALSE   
#>  4 Ball~ 2019-11-15 FALSE            FALSE            FALSE            FALSE            FALSE   
#>  5 Bean~ 2019-12-14 FALSE            FALSE            FALSE            FALSE            FALSE   
#>  6 Beeh~ 2019-11-03 NA               NA               NA               NA               NA      
#>  7 Bess~ 2020-07-25 FALSE            FALSE            FALSE            FALSE            FALSE   
#>  8 Bish~ 2019-11-07 FALSE            FALSE            FALSE            FALSE            FALSE   
#>  9 Bivi~ 2020-01-04 FALSE            FALSE            FALSE            FALSE            FALSE   
#> 10 Brow~ 2020-03-17 FALSE            FALSE            FALSE            FALSE            FALSE   
#> # ... with 90 more rows, and 14 more variables: `chronic pulmonary disease` <lgl>, `rheumatic
#> #   disease` <lgl>, `peptic ulcer disease` <lgl>, `mild liver disease` <lgl>, `diabetes without
#> #   complication` <lgl>, `hemiplegia or paraplegia` <lgl>, `renal disease` <lgl>, `diabetes
#> #   complication` <lgl>, malignancy <lgl>, `moderate or severe liver disease` <lgl>, `metastatic
#> #   solid tumor` <lgl>, `AIDS/HIV` <lgl>, quan_original <dbl>, quan_updated <dbl>
…
