Classcodes • coder
…
      Source: vignettes/classcodes.Rmd
      classcodes.Rmd

library(coder)

Motivating example

Let’s consider some example data (ex_peopple and
ex_icd10) from vignette("ex_data").

Let’s categorize those patients by their Charlson comorbidity:

categorize(ex_people, codedata = ex_icd10, cc = charlson, id = "name", code = "icd10")
#> Classification based on: icd10
#> # A tibble: 100 × 25
#>    name       surgery    myoca…¹ conge…² perip…³ cereb…⁴ demen…⁵ chron…⁶ rheum…⁷
#>    <chr>      <date>     <lgl>   <lgl>   <lgl>   <lgl>   <lgl>   <lgl>   <lgl>  
#>  1 Chen, Tre… 2023-02-28 FALSE   FALSE   FALSE   FALSE   FALSE   FALSE   FALSE  
#>  2 Graves, A… 2022-11-20 FALSE   FALSE   FALSE   FALSE   FALSE   FALSE   FALSE  
#>  3 Trujillo,… 2022-11-07 FALSE   FALSE   FALSE   FALSE   FALSE   FALSE   FALSE  
#>  4 Simpson, … 2023-02-09 FALSE   FALSE   FALSE   FALSE   FALSE   FALSE   FALSE  
#>  5 Chin, Nel… 2023-01-23 FALSE   FALSE   FALSE   FALSE   FALSE   FALSE   FALSE  
#>  6 Le, Chris… 2022-08-27 FALSE   FALSE   FALSE   FALSE   FALSE   FALSE   FALSE  
#>  7 Kang, Xuan 2022-11-29 FALSE   FALSE   FALSE   FALSE   FALSE   FALSE   FALSE  
#>  8 Shuemaker… 2022-08-28 FALSE   FALSE   FALSE   FALSE   FALSE   TRUE    FALSE  
#>  9 Boucher, … 2023-02-03 FALSE   FALSE   TRUE    FALSE   FALSE   FALSE   FALSE  
#> 10 Le, Sorai… 2023-01-08 FALSE   FALSE   FALSE   FALSE   FALSE   FALSE   FALSE  
#> # … with 90 more rows, 16 more variables: peptic.ulcer.disease <lgl>,
#> #   mild.liver.disease <lgl>, diabetes.without.complication <lgl>,
#> #   hemiplegia.or.paraplegia <lgl>, renal.disease <lgl>,
#> #   diabetes.complication <lgl>, malignancy <lgl>,
#> #   moderate.or.severe.liver.disease <lgl>, metastatic.solid.tumor <lgl>,
#> #   AIDS.HIV <lgl>, charlson <dbl>, deyo_ramano <dbl>, dhoore <dbl>,
#> #   ghali <dbl>, quan_original <dbl>, quan_updated <dbl>, and abbreviated …
…
