coder • coder
…
Let us consider the hypothetical setting above using some example
data (ex_peopple and ex_atc) as described in
vignette("ex_data").

Default categorization

A first attempt to calculate the Rx Risk V score for each
patient:

default <- categorize(
    ex_people, codedata = ex_atc, cc = rxriskv, id = "name", code = "atc")
#> Classification based on: atc_pratt
default
#> # A tibble: 100 × 50
#>    name     surgery    Alcohol.dependence Allergies Anticoagulants Antiplatelets
#>    <chr>    <date>     <lgl>              <lgl>     <lgl>          <lgl>        
#>  1 Chen, T… 2025-04-21 FALSE              TRUE      TRUE           FALSE        
#>  2 Graves,… 2025-01-11 FALSE              FALSE     FALSE          FALSE        
#>  3 Trujill… 2024-12-29 FALSE              FALSE     FALSE          FALSE        
#>  4 Simpson… 2025-04-02 FALSE              TRUE      FALSE          FALSE        
#>  5 Chin, N… 2025-03-16 FALSE              FALSE     FALSE          TRUE         
#>  6 Le, Chr… 2024-10-18 FALSE              FALSE     FALSE          FALSE        
#>  7 Kang, X… 2025-01-20 FALSE              TRUE      FALSE          TRUE         
#>  8 Shuemak… 2024-10-19 FALSE              FALSE     FALSE          FALSE        
#>  9 Boucher… 2025-03-27 FALSE              FALSE     FALSE          FALSE        
#> 10 Le, Sor… 2025-03-01 FALSE              FALSE     FALSE          FALSE        
#> # ℹ 90 more rows
#> # ℹ 44 more variables: Anxiety <lgl>, Arrhythmia <lgl>,
#> #   Benign.prostatic.hyperplasia <lgl>, Bipolar.disorder <lgl>,
#> #   Chronic.airways.disease <lgl>, Congestive.heart.failure <lgl>,
#> #   Dementia <lgl>, Depression <lgl>, Diabetes <lgl>, Epilepsy <lgl>,
#> #   Gastrooesophageal.reflux.disease <lgl>, Glaucoma <lgl>, Gout <lgl>,
#> #   Hepatitis.B <lgl>, Hepatitis.C <lgl>, HIV <lgl>, Hyperkalaemia <lgl>, …
…
Dirty code data

Let’s assume that our code data is not as clean as simulated
above.

s <- function(x) sample(x, 1e3, replace = TRUE)

ex_atc$code <- 
  paste0(
    s(letters), s(0:9), s(letters), s(c(".", "-", "?")), 
    ex_atc$atc, s(letters), s(0:9)
  )

ex_atc
#> # A tibble: 10,000 × 4
#>    name                 atc      prescription code          
#>    <chr>                <chr>    <date>       <chr>         
#>  1 Le, Soraiya          L03AA16  2023-01-23   m5g.L03AA16h7 
#>  2 Cleveland, Mark      J07CA01  2020-10-02   w3p.J07CA01m1 
#>  3 Santistevan, Charlie QJ57EA06 2016-03-13   l3d.QJ57EA06f2
#>  4 Meier, Hayden        R03DB04  2021-07-14   e8o-R03DB04s5 
#>  5 Hill, Audrey         V09IA01  2018-12-27   f3s.V09IA01s1 
#>  6 Thumma, Phillip      L02AE02  2015-02-04   o8j?L02AE02t3 
#>  7 Yost, Rebecca        S01EB06  2019-06-29   o8j?S01EB06r7 
#>  8 Mandakh, Joseph      A03DA01  2021-01-30   d7w-A03DA01k8 
#>  9 Meier, Hayden        C09AA13  2023-07-22   f3n-C09AA13m5 
#> 10 Trinh, Schuyler      A07EA03  2025-05-21   i7r?A07EA03n8 
#> # ℹ 9,990 more rows
…
