Interpret regular expressions • coder
…
We can compare the codes recognized as AIDS/HIV by either ICD-10-CM
or ICD-10-SE:

cm <- codebook(charlson, "icd10cm")$all_codes
#> Classification based on: icd10
cm[cm$group == "AIDS/HIV", ]
#> # A tibble: 1 × 3
#>   code  description                                group   
#>   <chr> <chr>                                      <chr>   
#> 1 B20   Human immunodeficiency virus [HIV] disease AIDS/HIV

se <- codebook(charlson, "icd10se")$all_codes
#> Classification based on: icd10
se[se$group == "AIDS/HIV", ]
#> # A tibble: 22 × 3
#>    code  description                                                      group 
#>    <chr> <chr>                                                            <chr> 
#>  1 B200  HIV-infektion med mykobakterieinfektion                          AIDS/…
#>  2 B201  HIV-infektion med andra bakterieinfektioner                      AIDS/…
#>  3 B202  HIV-infektion med cytomegalvirusinfektion                        AIDS/…
#>  4 B203  HIV-infektion med andra virusinfektioner                         AIDS/…
#>  5 B204  HIV-infektion med candidainfektion                               AIDS/…
#>  6 B205  HIV-infektion med andra mykoser                                  AIDS/…
#>  7 B206  HIV-infektion med Pneumocystis jirovecii (carinii)-pneumoni      AIDS/…
#>  8 B207  HIV-infektion med multipla infektioner                           AIDS/…
#>  9 B208  HIV-infektion med andra infektions- och parasitsjukdomar         AIDS/…
#> 10 B209  HIV-infektion med ospecificerad infektions- eller parasitsjukdom AIDS/…
#> # ℹ 12 more rows
…
