Categorize cases based on external data and classification scheme — categorize • coder
…
# For some patient data (ex_people) and related hospital visit code data
# with ICD 10-codes (ex_icd10), add the Elixhauser comorbidity
# conditions based on all registered ICD10-codes
categorize(
   x            = ex_people,
   codedata     = ex_icd10,
   cc           = "elixhauser",
   id           = "name",
   code         = "icd10"
)
#> Classification based on: icd10
#> # A tibble: 100 × 40
#>    name   surgery    congestive.heart.fai…¹ cardiac.arrhythmias valvular.disease
#>    <chr>  <date>     <lgl>                  <lgl>               <lgl>           
#>  1 Chen,… 2025-04-21 FALSE                  FALSE               FALSE           
#>  2 Grave… 2025-01-11 FALSE                  FALSE               FALSE           
#>  3 Truji… 2024-12-29 FALSE                  FALSE               FALSE           
#>  4 Simps… 2025-04-02 FALSE                  FALSE               FALSE           
#>  5 Chin,… 2025-03-16 FALSE                  FALSE               FALSE           
#>  6 Le, C… 2024-10-18 FALSE                  FALSE               FALSE           
#>  7 Kang,… 2025-01-20 FALSE                  FALSE               FALSE           
#>  8 Shuem… 2024-10-19 FALSE                  FALSE               FALSE           
#>  9 Bouch… 2025-03-27 FALSE                  FALSE               FALSE           
#> 10 Le, S… 2025-03-01 FALSE                  FALSE               FALSE           
#> # ℹ 90 more rows
#> # ℹ abbreviated name: ¹​congestive.heart.failure
#> # ℹ 35 more variables: pulmonary.circulation.disorder <lgl>,
#> #   peripheral.vascular.disorder <lgl>, hypertension.uncomplicated <lgl>,
#> #   hypertension.complicated <lgl>, paralysis <lgl>,
#> #   other.neurological.disorders <lgl>, chronic.pulmonary.disease <lgl>,
#> #   diabetes.uncomplicated <lgl>, diabetes.complicated <lgl>, …

# Add Charlson categories and two versions of a calculated index
# ("quan_original" and "quan_updated").
categorize(
   x            = ex_people,
   codedata     = ex_icd10,
   cc           = "charlson",
   id           = "name",
   code         = "icd10",
   index        = c("quan_original", "quan_updated")
)
#> Classification based on: icd10
#> # A tibble: 100 × 21
#>    name              surgery    myocardial.infarction congestive.heart.failure
#>    <chr>             <date>     <lgl>                 <lgl>                   
#>  1 Chen, Trevor      2025-04-21 FALSE                 FALSE                   
#>  2 Graves, Acineth   2025-01-11 FALSE                 FALSE                   
#>  3 Trujillo, Yanelly 2024-12-29 FALSE                 FALSE                   
#>  4 Simpson, Kenneth  2025-04-02 FALSE                 FALSE                   
#>  5 Chin, Nelson      2025-03-16 FALSE                 FALSE                   
#>  6 Le, Christina     2024-10-18 FALSE                 FALSE                   
#>  7 Kang, Xuan        2025-01-20 FALSE                 FALSE                   
#>  8 Shuemaker, Lauren 2024-10-19 FALSE                 FALSE                   
#>  9 Boucher, Teresa   2025-03-27 FALSE                 FALSE                   
#> 10 Le, Soraiya       2025-03-01 FALSE                 FALSE                   
#> # ℹ 90 more rows
#> # ℹ 17 more variables: peripheral.vascular.disease <lgl>,
#> #   cerebrovascular.disease <lgl>, dementia <lgl>,
#> #   chronic.pulmonary.disease <lgl>, rheumatic.disease <lgl>,
#> #   peptic.ulcer.disease <lgl>, mild.liver.disease <lgl>,
#> #   diabetes.without.complication <lgl>, hemiplegia.or.paraplegia <lgl>,
#> #   renal.disease <lgl>, diabetes.complication <lgl>, malignancy <lgl>, …
…
categorize(
   x            = ex_people,
   codedata     = ex_icd10,
   cc           = "charlson",
   id           = "name",
   code         = "icd10",
   index        = c("quan_original", "quan_updated"),
   codify_args  = list(
      date      = "surgery",
      days      = c(-30, -1),
      code_date = "admission"
   )
)
#> Classification based on: icd10
#> # A tibble: 100 × 21
#>    name              surgery    myocardial.infarction congestive.heart.failure
#>    <chr>             <date>     <lgl>                 <lgl>                   
#>  1 Chen, Trevor      2025-04-21 FALSE                 FALSE                   
#>  2 Graves, Acineth   2025-01-11 NA                    NA                      
#>  3 Trujillo, Yanelly 2024-12-29 NA                    NA                      
#>  4 Simpson, Kenneth  2025-04-02 FALSE                 FALSE                   
#>  5 Chin, Nelson      2025-03-16 FALSE                 FALSE                   
#>  6 Le, Christina     2024-10-18 FALSE                 FALSE                   
#>  7 Kang, Xuan        2025-01-20 FALSE                 FALSE                   
#>  8 Shuemaker, Lauren 2024-10-19 FALSE                 FALSE                   
#>  9 Boucher, Teresa   2025-03-27 NA                    NA                      
#> 10 Le, Soraiya       2025-03-01 FALSE                 FALSE                   
#> # ℹ 90 more rows
#> # ℹ 17 more variables: peripheral.vascular.disease <lgl>,
#> #   cerebrovascular.disease <lgl>, dementia <lgl>,
#> #   chronic.pulmonary.disease <lgl>, rheumatic.disease <lgl>,
#> #   peptic.ulcer.disease <lgl>, mild.liver.disease <lgl>,
#> #   diabetes.without.complication <lgl>, hemiplegia.or.paraplegia <lgl>,
#> #   renal.disease <lgl>, diabetes.complication <lgl>, malignancy <lgl>, …
…
# .. and once more with `regex = "icd10_rcs"`
categorize(
   codedata     = ex_icd10,
   cc           = "charlson",
   id           = "name",
   code         = "icd10",
   index        = ind,
   codify_args  = cd,
   cc_args      = list(regex = "icd10_rcs", tech_names = TRUE)
)
#> Classification based on: icd10
#> # A tibble: 100 × 37
#>    name              surgery    charlson_icd10_myocardi…¹ charlson_icd10_conge…²
#>    <chr>             <date>     <lgl>                     <lgl>                 
#>  1 Chen, Trevor      2025-04-21 FALSE                     FALSE                 
#>  2 Graves, Acineth   2025-01-11 NA                        NA                    
#>  3 Trujillo, Yanelly 2024-12-29 NA                        NA                    
#>  4 Simpson, Kenneth  2025-04-02 FALSE                     FALSE                 
#>  5 Chin, Nelson      2025-03-16 FALSE                     FALSE                 
#>  6 Le, Christina     2024-10-18 FALSE                     FALSE                 
#>  7 Kang, Xuan        2025-01-20 FALSE                     FALSE                 
#>  8 Shuemaker, Lauren 2024-10-19 FALSE                     FALSE                 
#>  9 Boucher, Teresa   2025-03-27 NA                        NA                    
#> 10 Le, Soraiya       2025-03-01 FALSE                     FALSE                 
#> # ℹ 90 more rows
#> # ℹ abbreviated names: ¹​charlson_icd10_myocardial_infarction,
#> #   ²​charlson_icd10_congestive_heart_failure
#> # ℹ 33 more variables: charlson_icd10_peripheral_vascular_disease <lgl>,
#> #   charlson_icd10_cerebrovascular_disease <lgl>,
#> #   charlson_icd10_dementia <lgl>,
#> #   charlson_icd10_chronic_pulmonary_disease <lgl>, …
…
# Or use `tech_names = TRUE` for informative but long names (use case above)
tech <-
  categorize(ex_people, codedata = ex_icd10, cc = "elixhauser",
    id = "name", code = "icd10",
    cc_args = list(tech_names = TRUE)
  )
#> Classification based on: icd10

# Compare
tibble::tibble(names(default), names(original), names(tech))
#> # A tibble: 40 × 3
#>    `names(default)`               `names(original)`              `names(tech)`  
#>    <chr>                          <chr>                          <chr>          
#>  1 name                           name                           name           
#>  2 surgery                        surgery                        surgery        
#>  3 congestive.heart.failure       congestive heart failure       elixhauser_icd…
#>  4 cardiac.arrhythmias            cardiac arrhythmias            elixhauser_icd…
#>  5 valvular.disease               valvular disease               elixhauser_icd…
#>  6 pulmonary.circulation.disorder pulmonary circulation disorder elixhauser_icd…
#>  7 peripheral.vascular.disorder   peripheral vascular disorder   elixhauser_icd…
#>  8 hypertension.uncomplicated     hypertension uncomplicated     elixhauser_icd…
#>  9 hypertension.complicated       hypertension complicated       elixhauser_icd…
#> 10 paralysis                      paralysis                      elixhauser_icd…
#> # ℹ 30 more rows
…
