Classcodes methods — classcodes • coder
…
#> 
#> Classcodes object
#>  
#> Regular expressions:
#>    icd10, icd10_short, icd9cm, icd9cm_ahrqweb, icd9cm_enhanced 
#> Indices:
#>    sum_all, sum_all_ahrq, walraven, sid29, sid30, ahrq_mort, ahrq_readm   
#> 
#> # A tibble: 31 x 13
#>    group icd10 icd10_short icd9cm icd9cm_ahrqweb icd9cm_enhanced sum_all
#>    <chr> <chr> <chr>       <chr>  <chr>          <chr>             <dbl>
#>  1 cong… I(09… I(09|1[13]… 39891… 39891|4(0(2[0… 39891|4(0(2[01…       1
#>  2 card… I(44… I(4[457-9]… 42(6(… NA             42(6([079|1[02…       1
#>  3 valv… A520… A52|I(0[5-… 0932|… 0932|39([4-6]… 0932|39[4-7]|4…       1
#>  4 pulm… I(2(… I2[678]     41(6|… 41(6|79)       41(5[01]|6|7[0…       1
#>  5 peri… I7([… I7[01389]|… 44(0|… 44([0-2]|3[1-… 0930|4(373|4([…       1
#>  6 hype… I10   I10         401[1… 401[19]|6420   401                   1
#>  7 hype… I1[1… I1[1-35]    40([2… 40(10|[2-5])|… 40[2-5]               1
#>  8 para… G(04… G(04|11|8[… 34(2[… 34[2-4]|438[2… 3(341|4([23]|4…       1
#>  9 othe… G(1[… G(1[0-3]|2… 3(3(1… 3(3([0145]|20… 3(3(19|2[01]|3…       1
#> 10 chro… (I27… I27|(J([46… 49(([… 49|50([0-5]|6… 4(16[89]|90)|5…       1
#> # … with 21 more rows, and 6 more variables: sum_all_ahrq <dbl>,
#> #   walraven <dbl>, sid29 <dbl>, sid30 <dbl>, ahrq_mort <dbl>, ahrq_readm <dbl>
…
#> 
#> Classcodes object
#>  
#> Regular expressions:
#>    icd10, icd10_short, icd9cm, icd9cm_ahrqweb, icd9cm_enhanced 
#> Indices:
#>    sum_all, sum_all_ahrq, walraven, sid29, sid30, ahrq_mort, ahrq_readm 
#> Hierarchy:
#>    c("metastatic cancer", "solid tumor"),
#>    c("diabetes complicated", "diabetes uncomplicated") 
#> 
#> # A tibble: 31 x 13
#>    group icd10 icd10_short icd9cm icd9cm_ahrqweb icd9cm_enhanced sum_all
#>    <chr> <chr> <chr>       <chr>  <chr>          <chr>             <dbl>
#>  1 cong… I(09… I(09|1[13]… 39891… 39891|4(0(2[0… 39891|4(0(2[01…       1
#>  2 card… I(44… I(4[457-9]… 42(6(… NA             42(6([079|1[02…       1
#>  3 valv… A520… A52|I(0[5-… 0932|… 0932|39([4-6]… 0932|39[4-7]|4…       1
#>  4 pulm… I(2(… I2[678]     41(6|… 41(6|79)       41(5[01]|6|7[0…       1
#>  5 peri… I7([… I7[01389]|… 44(0|… 44([0-2]|3[1-… 0930|4(373|4([…       1
#>  6 hype… I10   I10         401[1… 401[19]|6420   401                   1
#>  7 hype… I1[1… I1[1-35]    40([2… 40(10|[2-5])|… 40[2-5]               1
#>  8 para… G(04… G(04|11|8[… 34(2[… 34[2-4]|438[2… 3(341|4([23]|4…       1
#>  9 othe… G(1[… G(1[0-3]|2… 3(3(1… 3(3([0145]|20… 3(3(19|2[01]|3…       1
#> 10 chro… (I27… I27|(J([46… 49(([… 49|50([0-5]|6… 4(16[89]|90)|5…       1
#> # … with 21 more rows, and 6 more variables: sum_all_ahrq <dbl>,
#> #   walraven <dbl>, sid29 <dbl>, sid30 <dbl>, ahrq_mort <dbl>, ahrq_readm <dbl>
…
