codebook(s) for classcodes object — codebook • coder
…
#>  8 hemiplegia or paraplegia            45 G041, G114, G801, G802, G8100, G8101,…
#>  9 malignancy                         961 C000, C001, C002, C003, C004, C005, C…
#> 10 metastatic solid tumor              47 C770, C771, C772, C773, C774, C775, C…
#> 11 mild liver disease                  38 B180, B181, B182, B188, B189, K700, K…
#> 12 moderate or severe liver disease    14 I8500, I8501, I864, K7040, K7041, K71…
#> 13 myocardial infarction               18 I2101, I2102, I2109, I2111, I2119, I2…
#> 14 peptic ulcer disease                36 K250, K251, K252, K253, K254, K255, K…
#> 15 peripheral vascular disease        274 I700, I701, I70201, I70202, I70203, I…
#> 16 renal disease                       28 I120, I1310, I1311, N032, N033, N034,…
#> 17 rheumatic disease                  348 M0500, M05011, M05012, M05019, M05021…
#> 
#> 
#> Preview of all_codes:
#> 
#> # A tibble: 2,612 × 3
#>    code  description                                     group             
#>    <chr> <chr>                                           <chr>             
#>  1 B180  Chronic viral hepatitis B with delta-agent      mild liver disease
#>  2 B181  Chronic viral hepatitis B without delta-agent   mild liver disease
#>  3 B182  Chronic viral hepatitis C                       mild liver disease
#>  4 B188  Other chronic viral hepatitis                   mild liver disease
#>  5 B189  Chronic viral hepatitis, unspecified            mild liver disease
#>  6 B20   Human immunodeficiency virus [HIV] disease      AIDS/HIV          
#>  7 C000  Malignant neoplasm of external upper lip        malignancy        
#>  8 C001  Malignant neoplasm of external lower lip        malignancy        
#>  9 C002  Malignant neoplasm of external lip, unspecified malignancy        
#> 10 C003  Malignant neoplasm of upper lip, inner aspect   malignancy        
#> # … with 2,602 more rows
…
#>  8 hemiplegia or paraplegia            45 G041, G114, G801, G802, G8100, G8101,…
#>  9 malignancy                         961 C000, C001, C002, C003, C004, C005, C…
#> 10 metastatic solid tumor              47 C770, C771, C772, C773, C774, C775, C…
#> 11 mild liver disease                  38 B180, B181, B182, B188, B189, K700, K…
#> 12 moderate or severe liver disease    14 I8500, I8501, I864, K7040, K7041, K71…
#> 13 myocardial infarction               18 I2101, I2102, I2109, I2111, I2119, I2…
#> 14 peptic ulcer disease                36 K250, K251, K252, K253, K254, K255, K…
#> 15 peripheral vascular disease        274 I700, I701, I70201, I70202, I70203, I…
#> 16 renal disease                       28 I120, I1310, I1311, N032, N033, N034,…
#> 17 rheumatic disease                  348 M0500, M05011, M05012, M05019, M05021…
#> 
#> 
#> Preview of all_codes:
#> 
#> # A tibble: 2,612 × 3
#>    code  description                                                       group
#>    <chr> <chr>                                                             <chr>
#>  1 B180  Chronic viral hepatitis B with delta-agent                        mild…
#>  2 B181  Chronic viral hepatitis B without delta-agent                     mild…
#>  3 B182  Chronic viral hepatitis C                                         mild…
#>  4 B188  Other chronic viral hepatitis                                     mild…
#>  5 B189  Chronic viral hepatitis, unspecified                              mild…
#>  6 B20   Human immunodeficiency virus [HIV] disease                        AIDS…
#>  7 C000  Malignant neoplasm of external upper lip                          mali…
#>  8 C001  Malignant neoplasm of external lower lip                          mali…
#>  9 C002  Malignant neoplasm of external lip, unspecified                   mali…
#> 10 C003  Malignant neoplasm of upper lip, inner aspect                     mali…
#> 11 C004  Malignant neoplasm of lower lip, inner aspect                     mali…
#> 12 C005  Malignant neoplasm of lip, unspecified, inner aspect              mali…
#> 13 C006  Malignant neoplasm of commissure of lip, unspecified              mali…
#> 14 C008  Malignant neoplasm of overlapping sites of lip                    mali…
#> 15 C009  Malignant neoplasm of lip, unspecified                            mali…
#> 16 C01   Malignant neoplasm of base of tongue                              mali…
#> 17 C020  Malignant neoplasm of dorsal surface of tongue                    mali…
#> 18 C021  Malignant neoplasm of border of tongue                            mali…
#> 19 C022  Malignant neoplasm of ventral surface of tongue                   mali…
#> 20 C023  Malignant neoplasm of anterior two-thirds of tongue, part unspec… mali…
#> # … with 2,592 more rows
…
