Print summary for classcodes object — print.summary.classcodes • coder
…
    Examples

print(summary(elixhauser, coding = "icd10cm"))

#> Classification based on: regex_icd10
#> Indices: index_sum_all, index_sum_all_ahrq, index_walraven, index_sid29, index_sid30, index_ahrq_mort, index_ahrq_readm 
#> 
#> Recognized codes per group:
#> 
#> # A tibble: 31 x 3
#>    group                   n codes                                              
#>    <chr>               <int> <chr>                                              
#>  1 AIDS/HIV                1 B20                                                
#>  2 alcohol abuse         131 E52, F1010, F1011, F10120, F10121, F10129, F1014, ~
#>  3 blood loss anemia       1 D500                                               
#>  4 cardiac arrhythmias    73 I441, I442, I4430, I4439, I456, I459, I470, I471, ~
#>  5 chronic pulmonary ~    69 I27812, I27822, I27832, I27892, I2792, J40, J410, ~
#>  6 coagulopathy           27 D65, D66, D67, D680, D681, D682, D68311, D68312, D~
#>  7 congestive heart f~    36 I099, I1101, I1301, I1321, I255, I420, I425, I4261~
#>  8 deficiency anemia      17 D508, D509, D510, D511, D512, D513, D518, D519, D5~
#>  9 depression             31 F3130, F3131, F3132, F314, F3152, F320, F321, F322~
#> 10 diabetes complicat~   243 E1021, E1022, E1029, E10311, E10319, E103211, E103~
#> # ... with 21 more rows
…
