Print classcodes object — print.classcodes • coder
…
# Default printing
elixhauser
#> 
#> Classcodes object
#>  
#> Regular expressions:
#>    icd10, icd10_short, icd9cm, icd9cm_ahrqweb, icd9cm_enhanced 
#> Indices:
#>    sum_all, sum_all_ahrq, walraven, sid29, sid30, ahrq_mort, ahrq_readm 
#> Hierarchy:
#>    c("metastatic cancer", "solid tumor"),
#>    c("diabetes uncomplicated", "diabetes complicated") 
#> 
#> # A tibble: 31 × 13
#>    group      icd10 icd10…¹ icd9cm icd9c…² icd9c…³ sum_all sum_a…⁴ walra…⁵ sid29
#>    <chr>      <chr> <chr>   <chr>  <chr>   <chr>     <dbl>   <dbl>   <dbl> <dbl>
#>  1 congestiv… I(09… I(09|1… 39891… 39891|… 39891|…       1       1       7     9
#>  2 cardiac a… I(44… I(4[45… 42(6(… NA      42(6([…       1       0       5     8
#>  3 valvular … A520… A52|I(… 0932|… 0932|3… 0932|3…       1       1      -1     0
#>  4 pulmonary… I(2(… I2[678] 41(6|… 41(6|7… 41(5[0…       1       1       4     5
#>  5 periphera… I7([… I7[013… 44(0|… 44([0-… 0930|4…       1       1       2     4
#>  6 hypertens… I10   I10     401[1… 401[19… 401           1       1       0    -2
#>  7 hypertens… I1[1… I1[1-3… 40([2… 40(10|… 40[2-5]       1       1       0    -2
#>  8 paralysis  G(04… G(04|1… 34(2[… 34[2-4… 3(341|…       1       1       7     4
#>  9 other neu… G(1[… G(1[0-… 3(3(1… 3(3([0… 3(3(19…       1       1       6     5
#> 10 chronic p… (I27… I27|(J… 49(([… 49|50(… 4(16[8…       1       1       3     3
#> # … with 21 more rows, 3 more variables: sid30 <dbl>, ahrq_mort <dbl>,
#> #   ahrq_readm <dbl>, and abbreviated variable names ¹​icd10_short,
#> #   ²​icd9cm_ahrqweb, ³​icd9cm_enhanced, ⁴​sum_all_ahrq, ⁵​walraven
…
